EESchema Schematic File Version 4
LIBS:Attenuator-cache
EELAYER 26 0
EELAYER END
$Descr A4 11693 8268
encoding utf-8
Sheet 1 1
Title "Curve Tracer / Attenuator"
Date "2018-08-25"
Rev "0004"
Comp ""
Comment1 ""
Comment2 ""
Comment3 ""
Comment4 ""
$EndDescr
$Comp
L Device:R R14
U 1 1 5B556B9D
P 6100 950
F 0 "R14" V 6180 950 50  0000 C CNN
F 1 "499/1W" V 6000 950 50  0000 C CNN
F 2 "Resistors_SMD:R_2512_HandSoldering" V 6030 950 50  0001 C CNN
F 3 "" H 6100 950 50  0001 C CNN
	1    6100 950 
	1    0    0    -1  
$EndComp
$Comp
L Device:R R18
U 1 1 5B556BE0
P 7700 950
F 0 "R18" V 7780 950 50  0000 C CNN
F 1 "2K" V 7600 950 50  0000 C CNN
F 2 "Resistors_SMD:R_1206_HandSoldering" V 7630 950 50  0001 C CNN
F 3 "" H 7700 950 50  0001 C CNN
	1    7700 950 
	1    0    0    -1  
$EndComp
$Comp
L Device:R R15
U 1 1 5B556EB8
P 6500 950
F 0 "R15" V 6580 950 50  0000 C CNN
F 1 "1K/1W" V 6400 950 50  0000 C CNN
F 2 "Resistors_SMD:R_2512_HandSoldering" V 6430 950 50  0001 C CNN
F 3 "" H 6500 950 50  0001 C CNN
	1    6500 950 
	1    0    0    -1  
$EndComp
$Comp
L Device:R R16
U 1 1 5B556EF5
P 6900 950
F 0 "R16" V 6980 950 50  0000 C CNN
F 1 "200/2W" V 6800 950 50  0000 C CNN
F 2 "Resistors_SMD:R_2512_HandSoldering" V 6830 950 50  0001 C CNN
F 3 "" H 6900 950 50  0001 C CNN
	1    6900 950 
	1    0    0    -1  
$EndComp
$Comp
L Device:R R17
U 1 1 5B556F43
P 7300 950
F 0 "R17" V 7380 950 50  0000 C CNN
F 1 "200/2W" V 7200 950 50  0000 C CNN
F 2 "Resistors_SMD:R_2512_HandSoldering" V 7230 950 50  0001 C CNN
F 3 "" H 7300 950 50  0001 C CNN
	1    7300 950 
	1    0    0    -1  
$EndComp
$Comp
L Device:R R19
U 1 1 5B557025
P 8100 950
F 0 "R19" V 8180 950 50  0000 C CNN
F 1 "4K99" V 8000 950 50  0000 C CNN
F 2 "Resistors_SMD:R_1206_HandSoldering" V 8030 950 50  0001 C CNN
F 3 "" H 8100 950 50  0001 C CNN
	1    8100 950 
	1    0    0    -1  
$EndComp
$Comp
L Device:R R20
U 1 1 5B557077
P 8500 950
F 0 "R20" V 8580 950 50  0000 C CNN
F 1 "10K" V 8400 950 50  0000 C CNN
F 2 "Resistors_SMD:R_1206_HandSoldering" V 8430 950 50  0001 C CNN
F 3 "" H 8500 950 50  0001 C CNN
	1    8500 950 
	1    0    0    -1  
$EndComp
$Comp
L Device:R R21
U 1 1 5B5570D3
P 8900 950
F 0 "R21" V 8980 950 50  0000 C CNN
F 1 "20K" V 8800 950 50  0000 C CNN
F 2 "Resistors_SMD:R_1206_HandSoldering" V 8830 950 50  0001 C CNN
F 3 "" H 8900 950 50  0001 C CNN
	1    8900 950 
	1    0    0    -1  
$EndComp
$Comp
L Device:R R22
U 1 1 5B557135
P 9300 950
F 0 "R22" V 9380 950 50  0000 C CNN
F 1 "49K9" V 9200 950 50  0000 C CNN
F 2 "Resistors_SMD:R_1206_HandSoldering" V 9230 950 50  0001 C CNN
F 3 "" H 9300 950 50  0001 C CNN
	1    9300 950 
	1    0    0    -1  
$EndComp
$Comp
L Device:R R23
U 1 1 5B55719B
P 9700 950
F 0 "R23" V 9780 950 50  0000 C CNN
F 1 "100K" V 9600 950 50  0000 C CNN
F 2 "Resistors_SMD:R_1206_HandSoldering" V 9630 950 50  0001 C CNN
F 3 "" H 9700 950 50  0001 C CNN
	1    9700 950 
	1    0    0    -1  
$EndComp
Text GLabel 10100 725  2    40   Input ~ 0
POWER_SIG
$Comp
L suf_analog_switch:DG441 U7
U 4 1 5B55748D
P 6100 1500
F 0 "U7" H 6300 1400 50  0000 C CNN
F 1 "DG1411/ADG1411" H 5650 1600 50  0000 C CNN
F 2 "Housings_SSOP:TSSOP-16_4.4x5mm_Pitch0.65mm" H 6100 1500 60  0001 C CNN
F 3 "" H 6100 1500 60  0001 C CNN
	4    6100 1500
	0    -1   -1   0   
$EndComp
$Comp
L suf_analog_switch:DG441 U9
U 2 1 5B5577F9
P 6900 1500
F 0 "U9" H 7100 1400 50  0000 C CNN
F 1 "DG1411/ADG1411" H 6450 1600 50  0000 C CNN
F 2 "Housings_SSOP:TSSOP-16_4.4x5mm_Pitch0.65mm" H 6900 1500 60  0001 C CNN
F 3 "" H 6900 1500 60  0001 C CNN
	2    6900 1500
	0    -1   -1   0   
$EndComp
$Comp
L suf_analog_switch:DG441 U9
U 4 1 5B557857
P 7700 1500
F 0 "U9" H 7900 1400 50  0000 C CNN
F 1 "DG1411/ADG1411" H 7250 1600 50  0000 C CNN
F 2 "Housings_SSOP:TSSOP-16_4.4x5mm_Pitch0.65mm" H 7700 1500 60  0001 C CNN
F 3 "" H 7700 1500 60  0001 C CNN
	4    7700 1500
	0    -1   -1   0   
$EndComp
$Comp
L suf_analog_switch:DG441 U10
U 2 1 5B5578AE
P 8500 1500
F 0 "U10" H 8700 1400 50  0000 C CNN
F 1 "DG451/ADG451" H 8050 1600 50  0000 C CNN
F 2 "Housings_SSOP:TSSOP-16_4.4x5mm_Pitch0.65mm" H 8500 1500 60  0001 C CNN
F 3 "" H 8500 1500 60  0001 C CNN
	2    8500 1500
	0    -1   -1   0   
$EndComp
$Comp
L suf_analog_switch:DG441 U10
U 4 1 5B55790C
P 9300 1500
F 0 "U10" H 9500 1400 50  0000 C CNN
F 1 "DG451/ADG451" H 8850 1600 50  0000 C CNN
F 2 "Housings_SSOP:TSSOP-16_4.4x5mm_Pitch0.65mm" H 9300 1500 60  0001 C CNN
F 3 "" H 9300 1500 60  0001 C CNN
	4    9300 1500
	0    -1   -1   0   
$EndComp
$Comp
L suf_analog_switch:DG441 U7
U 3 1 5B557A32
P 6500 2350
F 0 "U7" H 6375 2475 50  0000 C CNN
F 1 "DG1411/ADG1411" H 6975 2250 50  0000 C CNN
F 2 "Housings_SSOP:TSSOP-16_4.4x5mm_Pitch0.65mm" H 6500 2350 60  0001 C CNN
F 3 "" H 6500 2350 60  0001 C CNN
	3    6500 2350
	0    -1   -1   0   
$EndComp
$Comp
L suf_analog_switch:DG441 U9
U 1 1 5B557A38
P 7300 2350
F 0 "U9" H 7175 2475 50  0000 C CNN
F 1 "DG1411/ADG1411" H 7775 2250 50  0000 C CNN
F 2 "Housings_SSOP:TSSOP-16_4.4x5mm_Pitch0.65mm" H 7300 2350 60  0001 C CNN
F 3 "" H 7300 2350 60  0001 C CNN
	1    7300 2350
	0    -1   -1   0   
$EndComp
$Comp
L suf_analog_switch:DG441 U9
U 3 1 5B557A3E
P 8100 2350
F 0 "U9" H 7950 2475 50  0000 C CNN
F 1 "DG1411/ADG1411" H 8575 2250 50  0000 C CNN
F 2 "Housings_SSOP:TSSOP-16_4.4x5mm_Pitch0.65mm" H 8100 2350 60  0001 C CNN
F 3 "" H 8100 2350 60  0001 C CNN
	3    8100 2350
	0    -1   -1   0   
$EndComp
$Comp
L suf_analog_switch:DG441 U10
U 1 1 5B557A44
P 8900 2350
F 0 "U10" H 8725 2475 50  0000 C CNN
F 1 "DG451/ADG451" H 9325 2250 50  0000 C CNN
F 2 "Housings_SSOP:TSSOP-16_4.4x5mm_Pitch0.65mm" H 8900 2350 60  0001 C CNN
F 3 "" H 8900 2350 60  0001 C CNN
	1    8900 2350
	0    -1   -1   0   
$EndComp
$Comp
L suf_analog_switch:DG441 U10
U 3 1 5B557A4A
P 9700 2375
F 0 "U10" H 9525 2500 50  0000 C CNN
F 1 "DG451/ADG451" H 10150 2275 50  0000 C CNN
F 2 "Housings_SSOP:TSSOP-16_4.4x5mm_Pitch0.65mm" H 9700 2375 60  0001 C CNN
F 3 "" H 9700 2375 60  0001 C CNN
	3    9700 2375
	0    -1   -1   0   
$EndComp
$Comp
L microchip:MCP23017 U8
U 1 1 5B56275A
P 7650 5175
F 0 "U8" H 7550 6200 50  0000 R CNN
F 1 "MCP23017" H 7550 6125 50  0000 R CNN
F 2 "Housings_SOIC:SOIC-28W_7.5x17.9mm_Pitch1.27mm" H 7700 4225 50  0001 L CNN
F 3 "" H 7900 6175 50  0001 C CNN
	1    7650 5175
	0    1    1    0   
$EndComp
$Comp
L Device:R R13
U 1 1 5B57F433
P 5700 950
F 0 "R13" V 5780 950 50  0000 C CNN
F 1 "200/2W" V 5600 950 50  0000 C CNN
F 2 "Resistors_SMD:R_2512_HandSoldering" V 5630 950 50  0001 C CNN
F 3 "" H 5700 950 50  0001 C CNN
	1    5700 950 
	1    0    0    -1  
$EndComp
$Comp
L Device:R R12
U 1 1 5B57F48D
P 5300 950
F 0 "R12" V 5380 950 50  0000 C CNN
F 1 "200/2W" V 5200 950 50  0000 C CNN
F 2 "Resistors_SMD:R_2512_HandSoldering" V 5230 950 50  0001 C CNN
F 3 "" H 5300 950 50  0001 C CNN
	1    5300 950 
	1    0    0    -1  
$EndComp
$Comp
L suf_analog_switch:DG441 U7
U 2 1 5B57F50A
P 5300 1500
F 0 "U7" H 5500 1400 50  0000 C CNN
F 1 "DG1411/ADG1411" H 4850 1600 50  0000 C CNN
F 2 "Housings_SSOP:TSSOP-16_4.4x5mm_Pitch0.65mm" H 5300 1500 60  0001 C CNN
F 3 "" H 5300 1500 60  0001 C CNN
	2    5300 1500
	0    -1   -1   0   
$EndComp
$Comp
L suf_analog_switch:DG441 U7
U 1 1 5B57F600
P 5700 2350
F 0 "U7" H 5575 2475 50  0000 C CNN
F 1 "DG1411/ADG1411" H 6150 2250 50  0000 C CNN
F 2 "Housings_SSOP:TSSOP-16_4.4x5mm_Pitch0.65mm" H 5700 2350 60  0001 C CNN
F 3 "" H 5700 2350 60  0001 C CNN
	1    5700 2350
	0    -1   -1   0   
$EndComp
$Comp
L Device:R R7
U 1 1 5B580836
P 4150 950
F 0 "R7" V 4230 950 50  0000 C CNN
F 1 "20/25W" V 4050 950 50  0000 C CNN
F 2 "TO_SOT_Packages_THT:TO-220-2_Vertical" V 4080 950 50  0001 C CNN
F 3 "" H 4150 950 50  0001 C CNN
	1    4150 950 
	1    0    0    -1  
$EndComp
$Comp
L Device:R R6
U 1 1 5B5808B5
P 3875 950
F 0 "R6" V 3955 950 50  0000 C CNN
F 1 "20/25W" V 3775 950 50  0000 C CNN
F 2 "TO_SOT_Packages_THT:TO-220-2_Vertical" V 3805 950 50  0001 C CNN
F 3 "" H 3875 950 50  0001 C CNN
	1    3875 950 
	1    0    0    -1  
$EndComp
$Comp
L suf_ssr:VO14642 U6
U 1 1 5B581908
P 4400 2100
F 0 "U6" H 4160 2390 50  0000 L CNN
F 1 "VO14642" H 4165 1800 50  0000 L CNN
F 2 "Housings_DIP:SMDIP-6_W7.62mm" H 4600 2200 50  0001 C CNN
F 3 "" H 4400 2210 50  0001 C CNN
	1    4400 2100
	-1   0    0    -1  
$EndComp
$Comp
L suf_ssr:VO14642 U5
U 1 1 5B581A81
P 3625 2100
F 0 "U5" H 3385 2390 50  0000 L CNN
F 1 "VO14642" H 3390 1800 50  0000 L CNN
F 2 "Housings_DIP:SMDIP-6_W7.62mm" H 3825 2200 50  0001 C CNN
F 3 "" H 3625 2210 50  0001 C CNN
	1    3625 2100
	1    0    0    -1  
$EndComp
$Comp
L Device:R R11
U 1 1 5B581BEB
P 4875 2175
F 0 "R11" V 4955 2175 50  0000 C CNN
F 1 "390" V 4875 2175 50  0000 C CNN
F 2 "Resistors_SMD:R_0603_HandSoldering" V 4805 2175 50  0001 C CNN
F 3 "" H 4875 2175 50  0001 C CNN
	1    4875 2175
	1    0    0    -1  
$EndComp
$Comp
L power:+15V #PWR01
U 1 1 5B582444
P 6750 1325
F 0 "#PWR01" H 6750 1175 50  0001 C CNN
F 1 "+15V" H 6750 1465 50  0000 C CNN
F 2 "" H 6750 1325 50  0001 C CNN
F 3 "" H 6750 1325 50  0001 C CNN
	1    6750 1325
	1    0    0    -1  
$EndComp
$Comp
L Device:R R3
U 1 1 5B583778
P 3075 2175
F 0 "R3" V 3155 2175 50  0000 C CNN
F 1 "390" V 3075 2175 50  0000 C CNN
F 2 "Resistors_SMD:R_0603_HandSoldering" V 3005 2175 50  0001 C CNN
F 3 "" H 3075 2175 50  0001 C CNN
	1    3075 2175
	1    0    0    -1  
$EndComp
$Comp
L power:GND #PWR02
U 1 1 5B5838AB
P 4750 2175
F 0 "#PWR02" H 4750 1925 50  0001 C CNN
F 1 "GND" H 4750 2025 50  0000 C CNN
F 2 "" H 4750 2175 50  0001 C CNN
F 3 "" H 4750 2175 50  0001 C CNN
	1    4750 2175
	1    0    0    -1  
$EndComp
$Comp
L power:GND #PWR03
U 1 1 5B583901
P 3275 2175
F 0 "#PWR03" H 3275 1925 50  0001 C CNN
F 1 "GND" H 3275 2025 50  0000 C CNN
F 2 "" H 3275 2175 50  0001 C CNN
F 3 "" H 3275 2175 50  0001 C CNN
	1    3275 2175
	1    0    0    -1  
$EndComp
$Comp
L power:GND #PWR04
U 1 1 5B5850F8
P 6575 5275
F 0 "#PWR04" H 6575 5025 50  0001 C CNN
F 1 "GND" H 6575 5125 50  0000 C CNN
F 2 "" H 6575 5275 50  0001 C CNN
F 3 "" H 6575 5275 50  0001 C CNN
	1    6575 5275
	1    0    0    -1  
$EndComp
Text GLabel 7250 5825 3    40   Input ~ 0
SDA
Text GLabel 7350 5825 3    40   Input ~ 0
SCL
$Comp
L power:GND #PWR05
U 1 1 5B585B91
P 6225 6125
F 0 "#PWR05" H 6225 5875 50  0001 C CNN
F 1 "GND" H 6225 5975 50  0000 C CNN
F 2 "" H 6225 6125 50  0001 C CNN
F 3 "" H 6225 6125 50  0001 C CNN
	1    6225 6125
	1    0    0    -1  
$EndComp
Text GLabel 10175 2750 2    40   Input ~ 0
POWER_LIM
$Comp
L Device:D_TVS_ALT D1
U 1 1 5B58C669
P 3350 4075
F 0 "D1" H 3350 3950 50  0000 C CNN
F 1 "15SMC15CA" H 3400 4200 50  0000 C CNN
F 2 "Diodes_SMD:D_SMC_Handsoldering" H 3350 4075 50  0001 C CNN
F 3 "" H 3350 4075 50  0001 C CNN
	1    3350 4075
	0    1    1    0   
$EndComp
$Comp
L power:GND #PWR06
U 1 1 5B58CB31
P 3350 4325
F 0 "#PWR06" H 3350 4075 50  0001 C CNN
F 1 "GND" H 3350 4175 50  0000 C CNN
F 2 "" H 3350 4325 50  0001 C CNN
F 3 "" H 3350 4325 50  0001 C CNN
	1    3350 4325
	1    0    0    -1  
$EndComp
$Comp
L power:GND #PWR07
U 1 1 5B58CB93
P 4300 4325
F 0 "#PWR07" H 4300 4075 50  0001 C CNN
F 1 "GND" H 4300 4175 50  0000 C CNN
F 2 "" H 4300 4325 50  0001 C CNN
F 3 "" H 4300 4325 50  0001 C CNN
	1    4300 4325
	1    0    0    -1  
$EndComp
$Comp
L Connector_Generic:Conn_01x02 J7
U 1 1 5B58D0A0
P 4825 4025
F 0 "J7" H 4825 4125 50  0000 C CNN
F 1 "DUT2" V 4925 3975 50  0000 C CNN
F 2 "suf_connector_ncw:CONN_NCW396-02S" H 4825 4025 50  0001 C CNN
F 3 "" H 4825 4025 50  0001 C CNN
	1    4825 4025
	1    0    0    -1  
$EndComp
$Comp
L Connector_Generic:Conn_01x02 J4
U 1 1 5B58D7EF
P 2675 4025
F 0 "J4" H 2675 4125 50  0000 C CNN
F 1 "DUT1" V 2775 3975 50  0000 C CNN
F 2 "suf_connector_ncw:CONN_NCW396-02S" H 2675 4025 50  0001 C CNN
F 3 "" H 2675 4025 50  0001 C CNN
	1    2675 4025
	-1   0    0    -1  
$EndComp
$Comp
L power:GND #PWR08
U 1 1 5B59D771
P 3250 5975
F 0 "#PWR08" H 3250 5725 50  0001 C CNN
F 1 "GND" H 3250 5825 50  0000 C CNN
F 2 "" H 3250 5975 50  0001 C CNN
F 3 "" H 3250 5975 50  0001 C CNN
	1    3250 5975
	1    0    0    -1  
$EndComp
$Comp
L Connector_Generic:Conn_01x03 J5
U 1 1 5B673FC0
P 4600 7100
F 0 "J5" H 4600 7300 50  0000 C CNN
F 1 "EXT_RESISTOR" V 4700 7100 50  0000 C CNN
F 2 "suf_connector_ncw:CONN_NCW396-03S" H 4600 7100 50  0001 C CNN
F 3 "" H 4600 7100 50  0001 C CNN
	1    4600 7100
	1    0    0    -1  
$EndComp
Text GLabel 4225 7100 0    40   Input ~ 0
POWER_SIG
Text GLabel 3725 1625 0    40   Input ~ 0
20R1
Text GLabel 4275 1625 2    40   Input ~ 0
20R2
$Comp
L Connector_Generic:Conn_01x04 J1
U 1 1 5B675D05
P 3450 7100
F 0 "J1" H 3450 7300 50  0000 C CNN
F 1 "POWER" V 3550 7050 50  0000 C CNN
F 2 "suf_connector_ncw:CONN_NCW254-04S" H 3450 7100 50  0001 C CNN
F 3 "" H 3450 7100 50  0001 C CNN
	1    3450 7100
	1    0    0    -1  
$EndComp
$Comp
L power:GND #PWR09
U 1 1 5B675F39
P 2925 7375
F 0 "#PWR09" H 2925 7125 50  0001 C CNN
F 1 "GND" H 2925 7225 50  0000 C CNN
F 2 "" H 2925 7375 50  0001 C CNN
F 3 "" H 2925 7375 50  0001 C CNN
	1    2925 7375
	1    0    0    -1  
$EndComp
Text GLabel 4200 7000 0    40   Input ~ 0
20R1
Text GLabel 4200 7200 0    40   Input ~ 0
20R2
$Comp
L Device:Jumper_NC_Small JP1
U 1 1 5B679838
P 6850 6250
F 0 "JP1" H 6975 6200 50  0000 C CNN
F 1 "A2" H 6725 6200 50  0000 C CNN
F 2 "Pin_Headers:Pin_Header_Straight_1x02_Pitch2.54mm" H 6850 6250 50  0001 C CNN
F 3 "" H 6850 6250 50  0001 C CNN
	1    6850 6250
	0    1    1    0   
$EndComp
$Comp
L Device:Jumper_NC_Small JP2
U 1 1 5B679907
P 6950 6250
F 0 "JP2" H 7075 6200 50  0000 C CNN
F 1 "A1" H 6825 6200 50  0000 C CNN
F 2 "Pin_Headers:Pin_Header_Straight_1x02_Pitch2.54mm" H 6950 6250 50  0001 C CNN
F 3 "" H 6950 6250 50  0001 C CNN
	1    6950 6250
	0    1    1    0   
$EndComp
$Comp
L Device:Jumper_NC_Small JP3
U 1 1 5B6799C2
P 7050 6250
F 0 "JP3" H 7175 6200 50  0000 C CNN
F 1 "A0" H 6925 6200 50  0000 C CNN
F 2 "Pin_Headers:Pin_Header_Straight_1x02_Pitch2.54mm" H 7050 6250 50  0001 C CNN
F 3 "" H 7050 6250 50  0001 C CNN
	1    7050 6250
	0    1    1    0   
$EndComp
$Comp
L Device:R R8
U 1 1 5B679B1B
P 6475 5725
F 0 "R8" V 6555 5725 50  0000 C CNN
F 1 "10K" V 6475 5725 50  0000 C CNN
F 2 "Resistors_SMD:R_0603_HandSoldering" V 6405 5725 50  0001 C CNN
F 3 "" H 6475 5725 50  0001 C CNN
	1    6475 5725
	0    -1   -1   0   
$EndComp
$Comp
L Device:R R9
U 1 1 5B679CB0
P 6475 5875
F 0 "R9" V 6555 5875 50  0000 C CNN
F 1 "10K" V 6475 5875 50  0000 C CNN
F 2 "Resistors_SMD:R_0603_HandSoldering" V 6405 5875 50  0001 C CNN
F 3 "" H 6475 5875 50  0001 C CNN
	1    6475 5875
	0    -1   -1   0   
$EndComp
$Comp
L Device:R R10
U 1 1 5B679D84
P 6475 6025
F 0 "R10" V 6555 6025 50  0000 C CNN
F 1 "10K" V 6475 6025 50  0000 C CNN
F 2 "Resistors_SMD:R_0603_HandSoldering" V 6405 6025 50  0001 C CNN
F 3 "" H 6475 6025 50  0001 C CNN
	1    6475 6025
	0    -1   -1   0   
$EndComp
$Comp
L Connector_Generic:Conn_01x03 J6
U 1 1 5B67B8B0
P 5675 7075
F 0 "J6" H 5675 7275 50  0000 C CNN
F 1 "CONTROL" V 5775 7075 50  0000 C CNN
F 2 "suf_connector_ncw:CONN_NCW254-03S" H 5675 7075 50  0001 C CNN
F 3 "" H 5675 7075 50  0001 C CNN
	1    5675 7075
	1    0    0    -1  
$EndComp
Text GLabel 5250 6975 0    40   Input ~ 0
SDA
Text GLabel 5250 7075 0    40   Input ~ 0
SCL
$Comp
L power:GND #PWR011
U 1 1 5B67BDA3
P 5400 7250
F 0 "#PWR011" H 5400 7000 50  0001 C CNN
F 1 "GND" H 5400 7100 50  0000 C CNN
F 2 "" H 5400 7250 50  0001 C CNN
F 3 "" H 5400 7250 50  0001 C CNN
	1    5400 7250
	1    0    0    -1  
$EndComp
$Comp
L Connector_Generic:Conn_01x03 J2
U 1 1 5B67C131
P 2550 7100
F 0 "J2" H 2550 7325 50  0000 C CNN
F 1 "SENSE" V 2650 7100 50  0000 C CNN
F 2 "suf_connector_ncw:CONN_NCW254-03S" H 2550 7100 50  0001 C CNN
F 3 "" H 2550 7100 50  0001 C CNN
	1    2550 7100
	1    0    0    -1  
$EndComp
$Comp
L power:GND #PWR012
U 1 1 5B67C3AC
P 2275 7275
F 0 "#PWR012" H 2275 7025 50  0001 C CNN
F 1 "GND" H 2275 7125 50  0000 C CNN
F 2 "" H 2275 7275 50  0001 C CNN
F 3 "" H 2275 7275 50  0001 C CNN
	1    2275 7275
	1    0    0    -1  
$EndComp
Text GLabel 2175 7000 0    40   Input ~ 0
POWER_SIG
Text GLabel 2175 7100 0    40   Input ~ 0
POWER_LIM
$Comp
L Connector_Generic:Conn_01x02 J3
U 1 1 5B67D380
P 1425 7025
F 0 "J3" H 1425 7175 50  0000 C CNN
F 1 "PWR_SIGNAL" V 1525 7025 50  0000 C CNN
F 2 "suf_connector_ncw:CONN_NCW396-02S" H 1425 7025 50  0001 C CNN
F 3 "" H 1425 7025 50  0001 C CNN
	1    1425 7025
	1    0    0    -1  
$EndComp
$Comp
L power:GND #PWR013
U 1 1 5B67D461
P 1150 7200
F 0 "#PWR013" H 1150 6950 50  0001 C CNN
F 1 "GND" H 1150 7050 50  0000 C CNN
F 2 "" H 1150 7200 50  0001 C CNN
F 3 "" H 1150 7200 50  0001 C CNN
	1    1150 7200
	1    0    0    -1  
$EndComp
Text GLabel 1125 7025 0    40   Input ~ 0
POWER_SIG
$Comp
L transistors:IRF7309IPBF Q2
U 2 1 5B68993D
P 4200 3600
F 0 "Q2" H 4450 3675 50  0000 L CNN
F 1 "AO4828" H 4450 3600 50  0000 L CNN
F 2 "Housings_SOIC:SOIC-8_3.9x4.9mm_Pitch1.27mm" H 4450 3525 50  0001 L CNN
F 3 "" H 4200 3600 50  0001 L CNN
	2    4200 3600
	1    0    0    1   
$EndComp
$Comp
L transistors:IRF7309IPBF Q1
U 2 1 5B68ADD8
P 3250 3600
F 0 "Q1" H 3500 3675 50  0000 L CNN
F 1 "AO4828" H 3500 3600 50  0000 L CNN
F 2 "Housings_SOIC:SOIC-8_3.9x4.9mm_Pitch1.27mm" H 3500 3525 50  0001 L CNN
F 3 "" H 3250 3600 50  0001 L CNN
	2    3250 3600
	1    0    0    1   
$EndComp
$Comp
L transistors:IRF7309IPBF Q2
U 1 1 5B68AEBE
P 4200 3125
F 0 "Q2" H 4450 3200 50  0000 L CNN
F 1 "AO4828" H 4450 3125 50  0000 L CNN
F 2 "Housings_SOIC:SOIC-8_3.9x4.9mm_Pitch1.27mm" H 4450 3050 50  0001 L CNN
F 3 "" H 4200 3125 50  0001 L CNN
	1    4200 3125
	1    0    0    -1  
$EndComp
$Comp
L transistors:IRF7309IPBF Q1
U 1 1 5B68AFA9
P 3250 3125
F 0 "Q1" H 3500 3200 50  0000 L CNN
F 1 "AO4828" H 3500 3125 50  0000 L CNN
F 2 "Housings_SOIC:SOIC-8_3.9x4.9mm_Pitch1.27mm" H 3500 3050 50  0001 L CNN
F 3 "" H 3250 3125 50  0001 L CNN
	1    3250 3125
	1    0    0    -1  
$EndComp
$Comp
L Device:D_TVS_ALT D2
U 1 1 5B692708
P 4300 4075
F 0 "D2" H 4300 4200 50  0000 C CNN
F 1 "15SMC15CA" H 4350 3950 50  0000 C CNN
F 2 "Diodes_SMD:D_SMC_Handsoldering" H 4300 4075 50  0001 C CNN
F 3 "" H 4300 4075 50  0001 C CNN
	1    4300 4075
	0    1    1    0   
$EndComp
$Comp
L power:+15V #PWR014
U 1 1 5B6A759B
P 5150 1325
F 0 "#PWR014" H 5150 1175 50  0001 C CNN
F 1 "+15V" H 5150 1465 50  0000 C CNN
F 2 "" H 5150 1325 50  0001 C CNN
F 3 "" H 5150 1325 50  0001 C CNN
	1    5150 1325
	1    0    0    -1  
$EndComp
$Comp
L power:-15V #PWR018
U 1 1 5B6A7654
P 5575 1575
F 0 "#PWR018" H 5575 1675 50  0001 C CNN
F 1 "-15V" H 5575 1725 50  0000 C CNN
F 2 "" H 5575 1575 50  0001 C CNN
F 3 "" H 5575 1575 50  0001 C CNN
	1    5575 1575
	-1   0    0    1   
$EndComp
$Comp
L power:+15V #PWR015
U 1 1 5B6A8541
P 5550 2175
F 0 "#PWR015" H 5550 2025 50  0001 C CNN
F 1 "+15V" H 5550 2315 50  0000 C CNN
F 2 "" H 5550 2175 50  0001 C CNN
F 3 "" H 5550 2175 50  0001 C CNN
	1    5550 2175
	1    0    0    -1  
$EndComp
$Comp
L power:-15V #PWR020
U 1 1 5B6A8B43
P 5975 2425
F 0 "#PWR020" H 5975 2525 50  0001 C CNN
F 1 "-15V" H 5975 2575 50  0000 C CNN
F 2 "" H 5975 2425 50  0001 C CNN
F 3 "" H 5975 2425 50  0001 C CNN
	1    5975 2425
	-1   0    0    1   
$EndComp
$Comp
L power:-15V #PWR023
U 1 1 5B6AB6B0
P 6375 1575
F 0 "#PWR023" H 6375 1675 50  0001 C CNN
F 1 "-15V" H 6375 1725 50  0000 C CNN
F 2 "" H 6375 1575 50  0001 C CNN
F 3 "" H 6375 1575 50  0001 C CNN
	1    6375 1575
	-1   0    0    1   
$EndComp
$Comp
L power:+15V #PWR016
U 1 1 5B6AB76A
P 5950 1325
F 0 "#PWR016" H 5950 1175 50  0001 C CNN
F 1 "+15V" H 5950 1465 50  0000 C CNN
F 2 "" H 5950 1325 50  0001 C CNN
F 3 "" H 5950 1325 50  0001 C CNN
	1    5950 1325
	1    0    0    -1  
$EndComp
Wire Wire Line
	3875 725  4150 725 
Wire Wire Line
	9700 725  9700 800 
Wire Wire Line
	9300 800  9300 725 
Connection ~ 9300 725 
Wire Wire Line
	8900 800  8900 725 
Connection ~ 8900 725 
Wire Wire Line
	8500 800  8500 725 
Connection ~ 8500 725 
Wire Wire Line
	8100 800  8100 725 
Connection ~ 8100 725 
Wire Wire Line
	7700 800  7700 725 
Connection ~ 7700 725 
Wire Wire Line
	7300 800  7300 725 
Connection ~ 7300 725 
Wire Wire Line
	6900 800  6900 725 
Connection ~ 6900 725 
Wire Wire Line
	6500 800  6500 725 
Connection ~ 6500 725 
Wire Wire Line
	6100 800  6100 725 
Connection ~ 6100 725 
Wire Wire Line
	6100 1100 6100 1200
Wire Wire Line
	6500 1100 6500 2050
Wire Wire Line
	6900 1100 6900 1200
Wire Wire Line
	7300 1100 7300 2050
Wire Wire Line
	7700 1100 7700 1200
Wire Wire Line
	8100 1100 8100 2050
Wire Wire Line
	8500 1100 8500 1200
Wire Wire Line
	8900 1100 8900 2050
Wire Wire Line
	9300 1100 9300 1200
Wire Wire Line
	9700 1100 9700 2075
Wire Wire Line
	6100 2750 6100 1800
Wire Wire Line
	3350 2750 3450 2750
Wire Wire Line
	9700 2750 9700 2675
Wire Wire Line
	9300 1800 9300 2750
Connection ~ 9300 2750
Wire Wire Line
	8500 1800 8500 2750
Connection ~ 8500 2750
Wire Wire Line
	7700 1800 7700 2750
Connection ~ 7700 2750
Wire Wire Line
	6900 1800 6900 2750
Connection ~ 6900 2750
Wire Wire Line
	6500 2650 6500 2750
Connection ~ 6500 2750
Wire Wire Line
	7300 2650 7300 2750
Connection ~ 7300 2750
Wire Wire Line
	8100 2650 8100 2750
Connection ~ 8100 2750
Wire Wire Line
	8900 2650 8900 2750
Connection ~ 8900 2750
Connection ~ 9700 725 
Wire Wire Line
	5700 1100 5700 2050
Wire Wire Line
	5300 1100 5300 1200
Wire Wire Line
	5300 725  5300 800 
Wire Wire Line
	5700 800  5700 725 
Connection ~ 5700 725 
Wire Wire Line
	5150 1325 5150 1500
Wire Wire Line
	5300 1800 5300 2750
Connection ~ 6100 2750
Wire Wire Line
	5700 2650 5700 2750
Connection ~ 5700 2750
Wire Wire Line
	3875 725  3875 800 
Connection ~ 5300 725 
Wire Wire Line
	4150 725  4150 800 
Wire Wire Line
	3275 2100 3275 2175
Wire Wire Line
	4750 2100 4750 2175
Wire Wire Line
	4150 1100 4150 1625
Wire Wire Line
	3875 1100 3875 1625
Connection ~ 4150 725 
Connection ~ 5300 2750
Wire Wire Line
	8650 5175 8825 5175
Wire Wire Line
	8825 5100 8825 5175
Wire Wire Line
	5700 5175 5825 5175
Wire Wire Line
	7250 5675 7250 5825
Wire Wire Line
	7350 5675 7350 5825
Wire Wire Line
	6850 6350 6850 6450
Wire Wire Line
	6850 6450 6950 6450
Wire Wire Line
	7050 6450 7050 6350
Connection ~ 6950 6450
Wire Wire Line
	6950 6350 6950 6450
Wire Wire Line
	8450 5675 8450 5750
Wire Wire Line
	8450 5750 8825 5750
Connection ~ 8825 5175
Connection ~ 9700 2750
Wire Wire Line
	3350 3325 3350 3350
Wire Wire Line
	4300 3325 4300 3350
Wire Wire Line
	4300 2750 4300 2925
Wire Wire Line
	3350 2750 3350 2925
Connection ~ 4300 2750
Wire Wire Line
	3350 3800 3350 3850
Wire Wire Line
	3350 4225 3350 4275
Wire Wire Line
	4300 3800 4300 3850
Wire Wire Line
	4300 4225 4300 4275
Wire Wire Line
	3050 3175 2950 3175
Wire Wire Line
	2950 3175 2950 3550
Wire Wire Line
	2950 3550 3050 3550
Wire Wire Line
	4000 3175 3900 3175
Wire Wire Line
	3900 3175 3900 3550
Wire Wire Line
	3900 3550 4000 3550
Connection ~ 2950 3550
Wire Wire Line
	2875 4025 2875 3850
Wire Wire Line
	2875 3850 3350 3850
Connection ~ 3350 3850
Wire Wire Line
	2875 4125 2875 4275
Wire Wire Line
	2875 4275 3350 4275
Connection ~ 3350 4275
Wire Wire Line
	4300 3850 4400 3850
Wire Wire Line
	4625 3850 4625 4025
Connection ~ 4300 3850
Wire Wire Line
	4625 4125 4625 4275
Wire Wire Line
	4625 4275 4300 4275
Connection ~ 4300 4275
Connection ~ 3900 3550
Wire Wire Line
	3250 5875 3250 5975
Wire Wire Line
	4400 7100 4225 7100
Wire Wire Line
	3725 1625 3875 1625
Connection ~ 3875 1625
Wire Wire Line
	4275 1625 4150 1625
Connection ~ 4150 1625
Wire Wire Line
	3250 7100 2875 7100
Wire Wire Line
	2875 7100 2875 6850
Wire Wire Line
	3250 7200 2925 7200
Wire Wire Line
	2925 7200 2925 7375
Wire Wire Line
	4200 7000 4400 7000
Wire Wire Line
	4400 7200 4200 7200
Wire Wire Line
	6850 5675 6850 5725
Wire Wire Line
	6950 5675 6950 5875
Wire Wire Line
	7050 5675 7050 6025
Wire Wire Line
	7300 6450 7300 6400
Connection ~ 7050 6450
Wire Wire Line
	6625 5725 6850 5725
Connection ~ 6850 5725
Wire Wire Line
	6625 5875 6950 5875
Connection ~ 6950 5875
Wire Wire Line
	6625 6025 7050 6025
Connection ~ 7050 6025
Wire Wire Line
	6325 5725 6225 5725
Wire Wire Line
	6225 5725 6225 5875
Wire Wire Line
	6325 5875 6225 5875
Connection ~ 6225 5875
Wire Wire Line
	6325 6025 6225 6025
Connection ~ 6225 6025
Wire Wire Line
	5250 6975 5475 6975
Wire Wire Line
	5250 7075 5475 7075
Wire Wire Line
	5475 7175 5400 7175
Wire Wire Line
	5400 7175 5400 7250
Wire Wire Line
	2350 7200 2275 7200
Wire Wire Line
	2275 7200 2275 7275
Wire Wire Line
	2175 7000 2350 7000
Wire Wire Line
	2175 7100 2350 7100
Wire Wire Line
	1225 7125 1150 7125
Wire Wire Line
	1150 7125 1150 7200
Wire Wire Line
	1225 7025 1125 7025
Wire Wire Line
	3450 3850 3450 3800
Wire Wire Line
	4400 3800 4400 3850
Connection ~ 4400 3850
Wire Wire Line
	4400 2925 4400 2750
Connection ~ 4400 2750
Wire Wire Line
	3450 2925 3450 2750
Connection ~ 3450 2750
Wire Wire Line
	3275 1900 3075 1900
Wire Wire Line
	3075 1900 3075 2025
Wire Wire Line
	3875 2300 3875 2750
Connection ~ 3875 2750
Wire Wire Line
	4150 2300 4150 2750
Connection ~ 4150 2750
Wire Wire Line
	7150 4675 7150 4050
Wire Wire Line
	4750 1900 4875 1900
Wire Wire Line
	4875 1900 4875 2025
Wire Wire Line
	5450 1500 5575 1500
Wire Wire Line
	5575 1500 5575 1575
Wire Wire Line
	7350 4675 7350 3850
Wire Wire Line
	5850 2350 5975 2350
Wire Wire Line
	5975 2350 5975 2425
Wire Wire Line
	5550 2175 5550 2350
Wire Wire Line
	7450 4675 7450 3750
Wire Wire Line
	6250 1500 6375 1500
Wire Wire Line
	6375 1500 6375 1575
Wire Wire Line
	5950 1500 5950 1325
Wire Wire Line
	7550 4675 7550 3650
$Comp
L power:-15V #PWR026
U 1 1 5B6AC236
P 6775 2425
F 0 "#PWR026" H 6775 2525 50  0001 C CNN
F 1 "-15V" H 6775 2575 50  0000 C CNN
F 2 "" H 6775 2425 50  0001 C CNN
F 3 "" H 6775 2425 50  0001 C CNN
	1    6775 2425
	-1   0    0    1   
$EndComp
Wire Wire Line
	6650 2350 6775 2350
Wire Wire Line
	6775 2350 6775 2425
$Comp
L power:+15V #PWR017
U 1 1 5B6AC2B4
P 6350 2175
F 0 "#PWR017" H 6350 2025 50  0001 C CNN
F 1 "+15V" H 6350 2315 50  0000 C CNN
F 2 "" H 6350 2175 50  0001 C CNN
F 3 "" H 6350 2175 50  0001 C CNN
	1    6350 2175
	1    0    0    -1  
$EndComp
Wire Wire Line
	6350 2350 6350 2175
$Comp
L power:-15V #PWR028
U 1 1 5B6ACCDA
P 7175 1575
F 0 "#PWR028" H 7175 1675 50  0001 C CNN
F 1 "-15V" H 7175 1725 50  0000 C CNN
F 2 "" H 7175 1575 50  0001 C CNN
F 3 "" H 7175 1575 50  0001 C CNN
	1    7175 1575
	-1   0    0    1   
$EndComp
Wire Wire Line
	7050 1500 7175 1500
Wire Wire Line
	7175 1500 7175 1575
$Comp
L power:-15V #PWR031
U 1 1 5B6ACD58
P 7575 2425
F 0 "#PWR031" H 7575 2525 50  0001 C CNN
F 1 "-15V" H 7575 2575 50  0000 C CNN
F 2 "" H 7575 2425 50  0001 C CNN
F 3 "" H 7575 2425 50  0001 C CNN
	1    7575 2425
	-1   0    0    1   
$EndComp
Wire Wire Line
	7450 2350 7575 2350
Wire Wire Line
	7575 2350 7575 2425
$Comp
L power:-15V #PWR033
U 1 1 5B6ACDD6
P 7975 1575
F 0 "#PWR033" H 7975 1675 50  0001 C CNN
F 1 "-15V" H 7975 1725 50  0000 C CNN
F 2 "" H 7975 1575 50  0001 C CNN
F 3 "" H 7975 1575 50  0001 C CNN
	1    7975 1575
	-1   0    0    1   
$EndComp
Wire Wire Line
	7850 1500 7975 1500
Wire Wire Line
	7975 1500 7975 1575
$Comp
L power:-15V #PWR035
U 1 1 5B6AD2F0
P 8375 2425
F 0 "#PWR035" H 8375 2525 50  0001 C CNN
F 1 "-15V" H 8375 2575 50  0000 C CNN
F 2 "" H 8375 2425 50  0001 C CNN
F 3 "" H 8375 2425 50  0001 C CNN
	1    8375 2425
	-1   0    0    1   
$EndComp
Wire Wire Line
	8250 2350 8375 2350
Wire Wire Line
	8375 2350 8375 2425
Wire Wire Line
	6750 1325 6750 1500
$Comp
L power:+15V #PWR0101
U 1 1 5B6ADAFA
P 7150 2175
F 0 "#PWR0101" H 7150 2025 50  0001 C CNN
F 1 "+15V" H 7150 2315 50  0000 C CNN
F 2 "" H 7150 2175 50  0001 C CNN
F 3 "" H 7150 2175 50  0001 C CNN
	1    7150 2175
	1    0    0    -1  
$EndComp
Wire Wire Line
	7150 2175 7150 2350
$Comp
L power:+15V #PWR019
U 1 1 5B6ADB77
P 7550 1325
F 0 "#PWR019" H 7550 1175 50  0001 C CNN
F 1 "+15V" H 7550 1465 50  0000 C CNN
F 2 "" H 7550 1325 50  0001 C CNN
F 3 "" H 7550 1325 50  0001 C CNN
	1    7550 1325
	1    0    0    -1  
$EndComp
Wire Wire Line
	7550 1325 7550 1500
$Comp
L power:+15V #PWR0102
U 1 1 5B6ADBF4
P 7950 2175
F 0 "#PWR0102" H 7950 2025 50  0001 C CNN
F 1 "+15V" H 7950 2315 50  0000 C CNN
F 2 "" H 7950 2175 50  0001 C CNN
F 3 "" H 7950 2175 50  0001 C CNN
	1    7950 2175
	1    0    0    -1  
$EndComp
Wire Wire Line
	7950 2175 7950 2350
$Comp
L power:-15V #PWR037
U 1 1 5B6ADDD3
P 8775 1575
F 0 "#PWR037" H 8775 1675 50  0001 C CNN
F 1 "-15V" H 8775 1725 50  0000 C CNN
F 2 "" H 8775 1575 50  0001 C CNN
F 3 "" H 8775 1575 50  0001 C CNN
	1    8775 1575
	-1   0    0    1   
$EndComp
Wire Wire Line
	8650 1500 8775 1500
Wire Wire Line
	8775 1500 8775 1575
$Comp
L power:+15V #PWR021
U 1 1 5B6ADE51
P 8350 1325
F 0 "#PWR021" H 8350 1175 50  0001 C CNN
F 1 "+15V" H 8350 1465 50  0000 C CNN
F 2 "" H 8350 1325 50  0001 C CNN
F 3 "" H 8350 1325 50  0001 C CNN
	1    8350 1325
	1    0    0    -1  
$EndComp
Wire Wire Line
	8350 1325 8350 1500
$Comp
L power:+15V #PWR022
U 1 1 5B6AE2BA
P 8750 2175
F 0 "#PWR022" H 8750 2025 50  0001 C CNN
F 1 "+15V" H 8750 2315 50  0000 C CNN
F 2 "" H 8750 2175 50  0001 C CNN
F 3 "" H 8750 2175 50  0001 C CNN
	1    8750 2175
	1    0    0    -1  
$EndComp
Wire Wire Line
	8750 2175 8750 2350
$Comp
L power:-15V #PWR041
U 1 1 5B6AE337
P 9175 2425
F 0 "#PWR041" H 9175 2525 50  0001 C CNN
F 1 "-15V" H 9175 2575 50  0000 C CNN
F 2 "" H 9175 2425 50  0001 C CNN
F 3 "" H 9175 2425 50  0001 C CNN
	1    9175 2425
	-1   0    0    1   
$EndComp
Wire Wire Line
	9050 2350 9175 2350
Wire Wire Line
	9175 2350 9175 2425
$Comp
L power:-15V #PWR043
U 1 1 5B6AE7D1
P 9575 1575
F 0 "#PWR043" H 9575 1675 50  0001 C CNN
F 1 "-15V" H 9575 1725 50  0000 C CNN
F 2 "" H 9575 1575 50  0001 C CNN
F 3 "" H 9575 1575 50  0001 C CNN
	1    9575 1575
	-1   0    0    1   
$EndComp
Wire Wire Line
	9450 1500 9575 1500
Wire Wire Line
	9575 1500 9575 1575
$Comp
L power:+15V #PWR0103
U 1 1 5B6AE84F
P 9150 1325
F 0 "#PWR0103" H 9150 1175 50  0001 C CNN
F 1 "+15V" H 9150 1465 50  0000 C CNN
F 2 "" H 9150 1325 50  0001 C CNN
F 3 "" H 9150 1325 50  0001 C CNN
	1    9150 1325
	1    0    0    -1  
$EndComp
Wire Wire Line
	9150 1325 9150 1500
$Comp
L power:+15V #PWR024
U 1 1 5B6AEB5F
P 9550 2200
F 0 "#PWR024" H 9550 2050 50  0001 C CNN
F 1 "+15V" H 9550 2340 50  0000 C CNN
F 2 "" H 9550 2200 50  0001 C CNN
F 3 "" H 9550 2200 50  0001 C CNN
	1    9550 2200
	1    0    0    -1  
$EndComp
Wire Wire Line
	9550 2200 9550 2375
$Comp
L power:-15V #PWR044
U 1 1 5B6AEC52
P 9975 2450
F 0 "#PWR044" H 9975 2550 50  0001 C CNN
F 1 "-15V" H 9975 2600 50  0000 C CNN
F 2 "" H 9975 2450 50  0001 C CNN
F 3 "" H 9975 2450 50  0001 C CNN
	1    9975 2450
	-1   0    0    1   
$EndComp
Wire Wire Line
	9850 2375 9975 2375
Wire Wire Line
	9975 2375 9975 2450
$Comp
L power:-15V #PWR0104
U 1 1 5B6B2DEE
P 3175 7375
F 0 "#PWR0104" H 3175 7475 50  0001 C CNN
F 1 "-15V" H 3175 7525 50  0000 C CNN
F 2 "" H 3175 7375 50  0001 C CNN
F 3 "" H 3175 7375 50  0001 C CNN
	1    3175 7375
	-1   0    0    1   
$EndComp
$Comp
L power:+15V #PWR025
U 1 1 5B6B39FB
P 3250 6850
F 0 "#PWR025" H 3250 6700 50  0001 C CNN
F 1 "+15V" H 3250 6990 50  0000 C CNN
F 2 "" H 3250 6850 50  0001 C CNN
F 3 "" H 3250 6850 50  0001 C CNN
	1    3250 6850
	1    0    0    -1  
$EndComp
Wire Wire Line
	3250 7300 3175 7300
Wire Wire Line
	3175 7300 3175 7375
Wire Wire Line
	3250 6850 3250 7000
$Comp
L suf_mosfet_driver:Si8751 U1
U 1 1 5B6CDE11
P 3100 5375
F 0 "U1" H 2850 5125 40  0000 C CNN
F 1 "Si8751" H 2900 5625 40  0000 C CNN
F 2 "Housings_SOIC:SOIC-8_3.9x4.9mm_Pitch1.27mm" H 3100 5375 40  0001 C CNN
F 3 "" H 3100 5375 40  0001 C CNN
	1    3100 5375
	0    -1   -1   0   
$EndComp
$Comp
L power:GND #PWR0105
U 1 1 5B6CE265
P 4200 5975
F 0 "#PWR0105" H 4200 5725 50  0001 C CNN
F 1 "GND" H 4200 5825 50  0000 C CNN
F 2 "" H 4200 5975 50  0001 C CNN
F 3 "" H 4200 5975 50  0001 C CNN
	1    4200 5975
	1    0    0    -1  
$EndComp
Wire Wire Line
	4200 5875 4200 5975
$Comp
L suf_mosfet_driver:Si8751 U2
U 1 1 5B6CE26C
P 4050 5375
F 0 "U2" H 3800 5125 40  0000 C CNN
F 1 "Si8751" H 3850 5625 40  0000 C CNN
F 2 "Housings_SOIC:SOIC-8_3.9x4.9mm_Pitch1.27mm" H 4050 5375 40  0001 C CNN
F 3 "" H 4050 5375 40  0001 C CNN
	1    4050 5375
	0    -1   -1   0   
$EndComp
Wire Wire Line
	3250 4875 3650 4875
Wire Wire Line
	3650 4875 3650 3350
Wire Wire Line
	3650 3350 3350 3350
Connection ~ 3350 3350
Wire Wire Line
	4200 4875 4525 4875
Wire Wire Line
	4525 4875 4525 3350
Wire Wire Line
	4525 3350 4300 3350
Connection ~ 4300 3350
Wire Wire Line
	2950 5875 2575 5875
Wire Wire Line
	2575 5875 2575 5625
Wire Wire Line
	3900 5875 3525 5875
Wire Wire Line
	3525 5875 3525 5625
$Comp
L Device:LED_Small D11
U 1 1 5B6D3283
P 9075 4600
F 0 "D11" H 9125 4550 50  0000 L CNN
F 1 "LED" H 8900 4550 50  0000 L CNN
F 2 "LEDs:LED_0603_HandSoldering" V 9075 4600 50  0001 C CNN
F 3 "" V 9075 4600 50  0001 C CNN
	1    9075 4600
	0    1    -1   0   
$EndComp
$Comp
L Device:R R28
U 1 1 5B6D3284
P 9075 4900
F 0 "R28" V 9125 4700 50  0000 C CNN
F 1 "680" V 9075 4900 50  0000 C CNN
F 2 "Resistors_SMD:R_0603_HandSoldering" V 9005 4900 50  0001 C CNN
F 3 "" H 9075 4900 50  0001 C CNN
	1    9075 4900
	-1   0    0    -1  
$EndComp
Wire Wire Line
	9075 4700 9075 4750
Wire Wire Line
	9075 5050 9075 5175
$Comp
L Device:LED_Small D12
U 1 1 5B6D3285
P 9200 4600
F 0 "D12" H 9250 4550 50  0000 L CNN
F 1 "LED" H 9025 4550 50  0000 L CNN
F 2 "LEDs:LED_0603_HandSoldering" V 9200 4600 50  0001 C CNN
F 3 "" V 9200 4600 50  0001 C CNN
	1    9200 4600
	0    1    -1   0   
$EndComp
$Comp
L Device:R R29
U 1 1 5B6D3286
P 9200 4900
F 0 "R29" V 9250 4700 50  0000 C CNN
F 1 "680" V 9200 4900 50  0000 C CNN
F 2 "Resistors_SMD:R_0603_HandSoldering" V 9130 4900 50  0001 C CNN
F 3 "" H 9200 4900 50  0001 C CNN
	1    9200 4900
	-1   0    0    -1  
$EndComp
Wire Wire Line
	9200 4700 9200 4750
Wire Wire Line
	9200 5175 9200 5050
$Comp
L Device:LED_Small D13
U 1 1 5B6D3287
P 9325 4600
F 0 "D13" H 9375 4550 50  0000 L CNN
F 1 "LED" H 9150 4550 50  0000 L CNN
F 2 "LEDs:LED_0603_HandSoldering" V 9325 4600 50  0001 C CNN
F 3 "" V 9325 4600 50  0001 C CNN
	1    9325 4600
	0    1    -1   0   
$EndComp
$Comp
L Device:R R30
U 1 1 5B6D3288
P 9325 4900
F 0 "R30" V 9375 4700 50  0000 C CNN
F 1 "680" V 9325 4900 50  0000 C CNN
F 2 "Resistors_SMD:R_0603_HandSoldering" V 9255 4900 50  0001 C CNN
F 3 "" H 9325 4900 50  0001 C CNN
	1    9325 4900
	-1   0    0    -1  
$EndComp
Wire Wire Line
	9325 4700 9325 4750
Wire Wire Line
	9325 5175 9325 5050
$Comp
L Device:LED_Small D14
U 1 1 5B6D3289
P 9450 4600
F 0 "D14" H 9500 4550 50  0000 L CNN
F 1 "LED" H 9275 4550 50  0000 L CNN
F 2 "LEDs:LED_0603_HandSoldering" V 9450 4600 50  0001 C CNN
F 3 "" V 9450 4600 50  0001 C CNN
	1    9450 4600
	0    1    -1   0   
$EndComp
$Comp
L Device:R R31
U 1 1 5B6D328A
P 9450 4900
F 0 "R31" V 9500 4700 50  0000 C CNN
F 1 "680" V 9450 4900 50  0000 C CNN
F 2 "Resistors_SMD:R_0603_HandSoldering" V 9380 4900 50  0001 C CNN
F 3 "" H 9450 4900 50  0001 C CNN
	1    9450 4900
	-1   0    0    -1  
$EndComp
Wire Wire Line
	9450 4700 9450 4750
Wire Wire Line
	9450 5175 9450 5050
$Comp
L Device:LED_Small D15
U 1 1 5B6D328B
P 9575 4600
F 0 "D15" H 9625 4550 50  0000 L CNN
F 1 "LED" H 9400 4550 50  0000 L CNN
F 2 "LEDs:LED_0603_HandSoldering" V 9575 4600 50  0001 C CNN
F 3 "" V 9575 4600 50  0001 C CNN
	1    9575 4600
	0    1    -1   0   
$EndComp
$Comp
L Device:R R32
U 1 1 5B6D328C
P 9575 4900
F 0 "R32" V 9625 4700 50  0000 C CNN
F 1 "680" V 9575 4900 50  0000 C CNN
F 2 "Resistors_SMD:R_0603_HandSoldering" V 9505 4900 50  0001 C CNN
F 3 "" H 9575 4900 50  0001 C CNN
	1    9575 4900
	-1   0    0    -1  
$EndComp
Wire Wire Line
	9575 4700 9575 4750
Wire Wire Line
	9575 5175 9575 5050
$Comp
L Device:LED_Small D16
U 1 1 5B6D328D
P 9700 4600
F 0 "D16" H 9750 4550 50  0000 L CNN
F 1 "LED" H 9525 4550 50  0000 L CNN
F 2 "LEDs:LED_0603_HandSoldering" V 9700 4600 50  0001 C CNN
F 3 "" V 9700 4600 50  0001 C CNN
	1    9700 4600
	0    1    -1   0   
$EndComp
$Comp
L Device:R R33
U 1 1 5B6D328E
P 9700 4900
F 0 "R33" V 9750 4700 50  0000 C CNN
F 1 "680" V 9700 4900 50  0000 C CNN
F 2 "Resistors_SMD:R_0603_HandSoldering" V 9630 4900 50  0001 C CNN
F 3 "" H 9700 4900 50  0001 C CNN
	1    9700 4900
	-1   0    0    -1  
$EndComp
Wire Wire Line
	9700 4700 9700 4750
Wire Wire Line
	9700 5175 9700 5050
$Comp
L Device:LED_Small D17
U 1 1 5B6D328F
P 9825 4600
F 0 "D17" H 9875 4550 50  0000 L CNN
F 1 "LED" H 9650 4550 50  0000 L CNN
F 2 "LEDs:LED_0603_HandSoldering" V 9825 4600 50  0001 C CNN
F 3 "" V 9825 4600 50  0001 C CNN
	1    9825 4600
	0    1    -1   0   
$EndComp
$Comp
L Device:R R34
U 1 1 5B6D3290
P 9825 4900
F 0 "R34" V 9875 4700 50  0000 C CNN
F 1 "680" V 9825 4900 50  0000 C CNN
F 2 "Resistors_SMD:R_0603_HandSoldering" V 9755 4900 50  0001 C CNN
F 3 "" H 9825 4900 50  0001 C CNN
	1    9825 4900
	-1   0    0    -1  
$EndComp
Wire Wire Line
	9825 4700 9825 4750
Wire Wire Line
	9825 5050 9825 5175
$Comp
L Device:LED_Small D18
U 1 1 5B6D3291
P 9950 4600
F 0 "D18" H 10000 4550 50  0000 L CNN
F 1 "LED" H 9775 4550 50  0000 L CNN
F 2 "LEDs:LED_0603_HandSoldering" V 9950 4600 50  0001 C CNN
F 3 "" V 9950 4600 50  0001 C CNN
	1    9950 4600
	0    1    -1   0   
$EndComp
$Comp
L Device:R R35
U 1 1 5B6D3292
P 9950 4900
F 0 "R35" V 10000 4700 50  0000 C CNN
F 1 "680" V 9950 4900 50  0000 C CNN
F 2 "Resistors_SMD:R_0603_HandSoldering" V 9880 4900 50  0001 C CNN
F 3 "" H 9950 4900 50  0001 C CNN
	1    9950 4900
	-1   0    0    -1  
$EndComp
Wire Wire Line
	9950 4700 9950 4750
Wire Wire Line
	9950 5050 9950 5175
Wire Wire Line
	9950 5175 9825 5175
Connection ~ 9825 5175
Connection ~ 9700 5175
Connection ~ 9575 5175
Connection ~ 9450 5175
Connection ~ 9325 5175
Connection ~ 9200 5175
$Comp
L power:GND #PWR027
U 1 1 5B6D3293
P 9075 5275
F 0 "#PWR027" H 9075 5025 50  0001 C CNN
F 1 "GND" H 9075 5125 50  0000 C CNN
F 2 "" H 9075 5275 50  0001 C CNN
F 3 "" H 9075 5275 50  0001 C CNN
	1    9075 5275
	-1   0    0    -1  
$EndComp
Connection ~ 9075 5175
Wire Wire Line
	9950 4500 9950 3650
Wire Wire Line
	9825 4500 9825 3750
Wire Wire Line
	9700 4500 9700 3850
Wire Wire Line
	9575 4500 9575 3950
Wire Wire Line
	9450 4500 9450 4050
Wire Wire Line
	9325 4500 9325 4150
Wire Wire Line
	9200 4500 9200 4250
Wire Wire Line
	9075 4500 9075 4350
$Comp
L Device:LED_Small D10
U 1 1 5B6D3795
P 6575 4600
F 0 "D10" H 6625 4550 50  0000 L CNN
F 1 "LED" H 6400 4550 50  0000 L CNN
F 2 "LEDs:LED_0603_HandSoldering" V 6575 4600 50  0001 C CNN
F 3 "" V 6575 4600 50  0001 C CNN
	1    6575 4600
	0    -1   -1   0   
$EndComp
$Comp
L Device:R R27
U 1 1 5B6D379B
P 6575 4900
F 0 "R27" V 6625 4700 50  0000 C CNN
F 1 "680" V 6575 4900 50  0000 C CNN
F 2 "Resistors_SMD:R_0603_HandSoldering" V 6505 4900 50  0001 C CNN
F 3 "" H 6575 4900 50  0001 C CNN
	1    6575 4900
	1    0    0    -1  
$EndComp
Wire Wire Line
	6575 4700 6575 4750
Wire Wire Line
	6575 5050 6575 5175
$Comp
L Device:LED_Small D9
U 1 1 5B6D37A4
P 6450 4600
F 0 "D9" H 6500 4550 50  0000 L CNN
F 1 "LED" H 6275 4550 50  0000 L CNN
F 2 "LEDs:LED_0603_HandSoldering" V 6450 4600 50  0001 C CNN
F 3 "" V 6450 4600 50  0001 C CNN
	1    6450 4600
	0    -1   -1   0   
$EndComp
$Comp
L Device:R R26
U 1 1 5B6D37AA
P 6450 4900
F 0 "R26" V 6500 4700 50  0000 C CNN
F 1 "680" V 6450 4900 50  0000 C CNN
F 2 "Resistors_SMD:R_0603_HandSoldering" V 6380 4900 50  0001 C CNN
F 3 "" H 6450 4900 50  0001 C CNN
	1    6450 4900
	1    0    0    -1  
$EndComp
Wire Wire Line
	6450 4700 6450 4750
Wire Wire Line
	6450 5175 6450 5050
$Comp
L Device:LED_Small D8
U 1 1 5B6D37B2
P 6325 4600
F 0 "D8" H 6375 4550 50  0000 L CNN
F 1 "LED" H 6150 4550 50  0000 L CNN
F 2 "LEDs:LED_0603_HandSoldering" V 6325 4600 50  0001 C CNN
F 3 "" V 6325 4600 50  0001 C CNN
	1    6325 4600
	0    -1   -1   0   
$EndComp
$Comp
L Device:R R25
U 1 1 5B6D37B8
P 6325 4900
F 0 "R25" V 6375 4700 50  0000 C CNN
F 1 "680" V 6325 4900 50  0000 C CNN
F 2 "Resistors_SMD:R_0603_HandSoldering" V 6255 4900 50  0001 C CNN
F 3 "" H 6325 4900 50  0001 C CNN
	1    6325 4900
	1    0    0    -1  
$EndComp
Wire Wire Line
	6325 4700 6325 4750
Wire Wire Line
	6325 5175 6325 5050
$Comp
L Device:LED_Small D7
U 1 1 5B6D37C0
P 6200 4600
F 0 "D7" H 6250 4550 50  0000 L CNN
F 1 "LED" H 6025 4550 50  0000 L CNN
F 2 "LEDs:LED_0603_HandSoldering" V 6200 4600 50  0001 C CNN
F 3 "" V 6200 4600 50  0001 C CNN
	1    6200 4600
	0    -1   -1   0   
$EndComp
$Comp
L Device:R R24
U 1 1 5B6D37C6
P 6200 4900
F 0 "R24" V 6250 4700 50  0000 C CNN
F 1 "680" V 6200 4900 50  0000 C CNN
F 2 "Resistors_SMD:R_0603_HandSoldering" V 6130 4900 50  0001 C CNN
F 3 "" H 6200 4900 50  0001 C CNN
	1    6200 4900
	1    0    0    -1  
$EndComp
Wire Wire Line
	6200 4700 6200 4750
Wire Wire Line
	6200 5175 6200 5050
$Comp
L Device:LED_Small D6
U 1 1 5B6D37CE
P 6075 4600
F 0 "D6" H 6125 4550 50  0000 L CNN
F 1 "LED" H 5900 4550 50  0000 L CNN
F 2 "LEDs:LED_0603_HandSoldering" V 6075 4600 50  0001 C CNN
F 3 "" V 6075 4600 50  0001 C CNN
	1    6075 4600
	0    -1   -1   0   
$EndComp
$Comp
L Device:R R5
U 1 1 5B6D37D4
P 6075 4900
F 0 "R5" V 6125 4700 50  0000 C CNN
F 1 "680" V 6075 4900 50  0000 C CNN
F 2 "Resistors_SMD:R_0603_HandSoldering" V 6005 4900 50  0001 C CNN
F 3 "" H 6075 4900 50  0001 C CNN
	1    6075 4900
	1    0    0    -1  
$EndComp
Wire Wire Line
	6075 4700 6075 4750
Wire Wire Line
	6075 5175 6075 5050
$Comp
L Device:LED_Small D5
U 1 1 5B6D37DC
P 5950 4600
F 0 "D5" H 6000 4550 50  0000 L CNN
F 1 "LED" H 5775 4550 50  0000 L CNN
F 2 "LEDs:LED_0603_HandSoldering" V 5950 4600 50  0001 C CNN
F 3 "" V 5950 4600 50  0001 C CNN
	1    5950 4600
	0    -1   -1   0   
$EndComp
$Comp
L Device:R R4
U 1 1 5B6D37E2
P 5950 4900
F 0 "R4" V 6000 4700 50  0000 C CNN
F 1 "680" V 5950 4900 50  0000 C CNN
F 2 "Resistors_SMD:R_0603_HandSoldering" V 5880 4900 50  0001 C CNN
F 3 "" H 5950 4900 50  0001 C CNN
	1    5950 4900
	1    0    0    -1  
$EndComp
Wire Wire Line
	5950 4700 5950 4750
Wire Wire Line
	5950 5175 5950 5050
$Comp
L Device:LED_Small D4
U 1 1 5B6D37EA
P 5825 4600
F 0 "D4" H 5875 4550 50  0000 L CNN
F 1 "LED" H 5650 4550 50  0000 L CNN
F 2 "LEDs:LED_0603_HandSoldering" V 5825 4600 50  0001 C CNN
F 3 "" V 5825 4600 50  0001 C CNN
	1    5825 4600
	0    -1   -1   0   
$EndComp
$Comp
L Device:R R2
U 1 1 5B6D37F0
P 5825 4900
F 0 "R2" V 5875 4700 50  0000 C CNN
F 1 "680" V 5825 4900 50  0000 C CNN
F 2 "Resistors_SMD:R_0603_HandSoldering" V 5755 4900 50  0001 C CNN
F 3 "" H 5825 4900 50  0001 C CNN
	1    5825 4900
	1    0    0    -1  
$EndComp
Wire Wire Line
	5825 4700 5825 4750
Wire Wire Line
	5825 5050 5825 5175
$Comp
L Device:LED_Small D3
U 1 1 5B6D37F8
P 5700 4600
F 0 "D3" H 5750 4550 50  0000 L CNN
F 1 "LED" H 5525 4550 50  0000 L CNN
F 2 "LEDs:LED_0603_HandSoldering" V 5700 4600 50  0001 C CNN
F 3 "" V 5700 4600 50  0001 C CNN
	1    5700 4600
	0    -1   -1   0   
$EndComp
$Comp
L Device:R R1
U 1 1 5B6D37FE
P 5700 4900
F 0 "R1" V 5750 4700 50  0000 C CNN
F 1 "680" V 5700 4900 50  0000 C CNN
F 2 "Resistors_SMD:R_0603_HandSoldering" V 5630 4900 50  0001 C CNN
F 3 "" H 5700 4900 50  0001 C CNN
	1    5700 4900
	1    0    0    -1  
$EndComp
Wire Wire Line
	5700 4700 5700 4750
Wire Wire Line
	5700 5050 5700 5175
Connection ~ 5825 5175
Connection ~ 5950 5175
Connection ~ 6075 5175
Connection ~ 6200 5175
Connection ~ 6325 5175
Connection ~ 6450 5175
Connection ~ 6575 5175
Wire Wire Line
	5700 4500 5700 3650
Wire Wire Line
	5825 4500 5825 3750
Wire Wire Line
	5950 4500 5950 3850
Wire Wire Line
	6075 4500 6075 3950
Wire Wire Line
	6200 4500 6200 4050
Wire Wire Line
	6325 4500 6325 4150
Wire Wire Line
	6450 4500 6450 4250
Wire Wire Line
	6575 4500 6575 4350
Wire Wire Line
	5700 3650 7550 3650
Wire Wire Line
	5825 3750 7450 3750
Wire Wire Line
	5950 3850 7350 3850
Wire Wire Line
	6075 3950 7250 3950
Wire Wire Line
	6200 4050 7150 4050
Wire Wire Line
	6325 4150 7050 4150
Wire Wire Line
	6450 4250 6950 4250
Wire Wire Line
	6575 4350 6850 4350
$Comp
L power:+5V #PWR0106
U 1 1 5B6D7A42
P 2575 5625
F 0 "#PWR0106" H 2575 5475 50  0001 C CNN
F 1 "+5V" H 2575 5765 50  0000 C CNN
F 2 "" H 2575 5625 50  0001 C CNN
F 3 "" H 2575 5625 50  0001 C CNN
	1    2575 5625
	1    0    0    -1  
$EndComp
$Comp
L power:+5V #PWR029
U 1 1 5B6D7AFE
P 3525 5625
F 0 "#PWR029" H 3525 5475 50  0001 C CNN
F 1 "+5V" H 3525 5765 50  0000 C CNN
F 2 "" H 3525 5625 50  0001 C CNN
F 3 "" H 3525 5625 50  0001 C CNN
	1    3525 5625
	1    0    0    -1  
$EndComp
$Comp
L power:+5V #PWR030
U 1 1 5B6D7BBA
P 8825 5100
F 0 "#PWR030" H 8825 4950 50  0001 C CNN
F 1 "+5V" H 8825 5240 50  0000 C CNN
F 2 "" H 8825 5100 50  0001 C CNN
F 3 "" H 8825 5100 50  0001 C CNN
	1    8825 5100
	1    0    0    -1  
$EndComp
$Comp
L power:+5V #PWR0107
U 1 1 5B6D9F92
P 2875 6850
F 0 "#PWR0107" H 2875 6700 50  0001 C CNN
F 1 "+5V" H 2875 6990 50  0000 C CNN
F 2 "" H 2875 6850 50  0001 C CNN
F 3 "" H 2875 6850 50  0001 C CNN
	1    2875 6850
	1    0    0    -1  
$EndComp
Text Label 2950 7100 0    40   ~ 0
VL
Wire Wire Line
	9300 725  9700 725 
Wire Wire Line
	8900 725  9300 725 
Wire Wire Line
	8500 725  8900 725 
Wire Wire Line
	8100 725  8500 725 
Wire Wire Line
	7700 725  8100 725 
Wire Wire Line
	7300 725  7700 725 
Wire Wire Line
	6900 725  7300 725 
Wire Wire Line
	6500 725  6900 725 
Wire Wire Line
	6100 725  6500 725 
Wire Wire Line
	9300 2750 9700 2750
Wire Wire Line
	8500 2750 8900 2750
Wire Wire Line
	7700 2750 8100 2750
Wire Wire Line
	6900 2750 7300 2750
Wire Wire Line
	6500 2750 6900 2750
Wire Wire Line
	7300 2750 7700 2750
Wire Wire Line
	8100 2750 8500 2750
Wire Wire Line
	8900 2750 9300 2750
Wire Wire Line
	9700 725  10100 725 
Wire Wire Line
	5700 725  6100 725 
Wire Wire Line
	6100 2750 6500 2750
Wire Wire Line
	5700 2750 6100 2750
Wire Wire Line
	5300 725  5700 725 
Wire Wire Line
	4150 725  5300 725 
Wire Wire Line
	5300 2750 5700 2750
Wire Wire Line
	6950 6450 7050 6450
Wire Wire Line
	8825 5175 8825 5750
Wire Wire Line
	9700 2750 10175 2750
Wire Wire Line
	4300 2750 4400 2750
Wire Wire Line
	2950 3550 2950 4875
Wire Wire Line
	3350 3850 3350 3925
Wire Wire Line
	3350 3850 3450 3850
Wire Wire Line
	3350 4275 3350 4325
Wire Wire Line
	4300 3850 4300 3925
Wire Wire Line
	4300 4275 4300 4325
Wire Wire Line
	3900 3550 3900 4875
Wire Wire Line
	3875 1625 3875 1900
Wire Wire Line
	4150 1625 4150 1900
Wire Wire Line
	7050 6450 7300 6450
Wire Wire Line
	6850 5725 6850 6150
Wire Wire Line
	6950 5875 6950 6150
Wire Wire Line
	7050 6025 7050 6150
Wire Wire Line
	6225 5875 6225 6025
Wire Wire Line
	6225 6025 6225 6125
Wire Wire Line
	4400 3850 4625 3850
Wire Wire Line
	4400 2750 5300 2750
Wire Wire Line
	3450 2750 3875 2750
Wire Wire Line
	3875 2750 4150 2750
Wire Wire Line
	4150 2750 4300 2750
Wire Wire Line
	3350 3350 3350 3400
Wire Wire Line
	4300 3350 4300 3400
Wire Wire Line
	9825 5175 9700 5175
Wire Wire Line
	9700 5175 9575 5175
Wire Wire Line
	9575 5175 9450 5175
Wire Wire Line
	9450 5175 9325 5175
Wire Wire Line
	9325 5175 9200 5175
Wire Wire Line
	9200 5175 9075 5175
Wire Wire Line
	9075 5175 9075 5275
Wire Wire Line
	5825 5175 5950 5175
Wire Wire Line
	5950 5175 6075 5175
Wire Wire Line
	6075 5175 6200 5175
Wire Wire Line
	6200 5175 6325 5175
Wire Wire Line
	6325 5175 6450 5175
Wire Wire Line
	6450 5175 6575 5175
Wire Wire Line
	6575 5175 6575 5275
Wire Wire Line
	6575 5175 6650 5175
Wire Wire Line
	7250 3950 7250 4675
Wire Wire Line
	7050 4150 7050 4675
Wire Wire Line
	6950 4250 6950 4675
Wire Wire Line
	6850 4350 6850 4675
$Comp
L power:+5V #PWR0108
U 1 1 5B75C19A
P 7300 6400
F 0 "#PWR0108" H 7300 6250 50  0001 C CNN
F 1 "+5V" H 7300 6540 50  0000 C CNN
F 2 "" H 7300 6400 50  0001 C CNN
F 3 "" H 7300 6400 50  0001 C CNN
	1    7300 6400
	1    0    0    -1  
$EndComp
Wire Wire Line
	9075 4350 8450 4350
Wire Wire Line
	8450 4350 8450 4625
Wire Wire Line
	9200 4250 8350 4250
Wire Wire Line
	8350 4250 8350 4400
Wire Wire Line
	9325 4150 8250 4150
Wire Wire Line
	8250 4150 8250 4300
Wire Wire Line
	9450 4050 8150 4050
Wire Wire Line
	8150 4050 8150 4200
Wire Wire Line
	9575 3950 8050 3950
Wire Wire Line
	8050 3950 8050 4675
Wire Wire Line
	9700 3850 7950 3850
Wire Wire Line
	7950 3850 7950 4675
Wire Wire Line
	9825 3750 7850 3750
Wire Wire Line
	7850 3750 7850 4675
Wire Wire Line
	9950 3650 7750 3650
Wire Wire Line
	7750 3650 7750 4675
Wire Wire Line
	9850 2675 9850 3575
Wire Wire Line
	9850 3575 7550 3575
Wire Wire Line
	7550 3575 7550 3650
Connection ~ 7550 3650
Wire Wire Line
	9450 1800 9450 3500
Wire Wire Line
	9450 3500 7450 3500
Wire Wire Line
	7450 3500 7450 3750
Connection ~ 7450 3750
Wire Wire Line
	9050 2650 9050 3425
Wire Wire Line
	9050 3425 7350 3425
Wire Wire Line
	7350 3425 7350 3850
Connection ~ 7350 3850
Wire Wire Line
	8650 1800 8650 3350
Wire Wire Line
	8650 3350 7250 3350
Wire Wire Line
	7250 3350 7250 3950
Connection ~ 7250 3950
Wire Wire Line
	8250 2650 8250 3275
Wire Wire Line
	8250 3275 7150 3275
Wire Wire Line
	7150 3275 7150 4050
Connection ~ 7150 4050
Wire Wire Line
	7850 1800 7850 3200
Wire Wire Line
	7850 3200 7050 3200
Wire Wire Line
	7050 3200 7050 4150
Connection ~ 7050 4150
Wire Wire Line
	7450 2650 7450 3125
Wire Wire Line
	7450 3125 6950 3125
Wire Wire Line
	6950 3125 6950 4250
Connection ~ 6950 4250
Wire Wire Line
	7050 1800 7050 3050
Wire Wire Line
	7050 3050 6850 3050
Wire Wire Line
	6850 3050 6850 4350
Connection ~ 6850 4350
Wire Wire Line
	6650 2650 6650 4625
Wire Wire Line
	6650 4625 8450 4625
Connection ~ 8450 4625
Wire Wire Line
	8450 4625 8450 4675
Wire Wire Line
	6250 1800 6250 4400
Wire Wire Line
	6250 4400 8350 4400
Connection ~ 8350 4400
Wire Wire Line
	8350 4400 8350 4675
Wire Wire Line
	5850 2650 5850 4300
Wire Wire Line
	5850 4300 8250 4300
Connection ~ 8250 4300
Wire Wire Line
	8250 4300 8250 4675
Wire Wire Line
	5450 1800 5450 4200
Wire Wire Line
	5450 4200 8150 4200
Connection ~ 8150 4200
Wire Wire Line
	8150 4200 8150 4675
Wire Wire Line
	4875 2325 4875 3800
Wire Wire Line
	4875 3800 8050 3800
Wire Wire Line
	8050 3800 8050 3950
Connection ~ 8050 3950
Wire Wire Line
	3075 2325 3075 2575
Wire Wire Line
	3075 2575 4975 2575
Wire Wire Line
	4975 2575 4975 3700
Wire Wire Line
	4975 3700 7950 3700
Wire Wire Line
	7950 3700 7950 3850
Connection ~ 7950 3850
Wire Wire Line
	4100 5875 4100 6225
Wire Wire Line
	4100 6225 5075 6225
Wire Wire Line
	5075 6225 5075 3550
Wire Wire Line
	5075 3550 7850 3550
Wire Wire Line
	7850 3550 7850 3750
Connection ~ 7850 3750
Wire Wire Line
	3150 5875 3150 6325
Wire Wire Line
	3150 6325 5150 6325
Wire Wire Line
	5150 6325 5150 3475
Wire Wire Line
	5150 3475 7750 3475
Wire Wire Line
	7750 3475 7750 3650
Connection ~ 7750 3650
$Comp
L Device:C C11
U 1 1 5B7429C5
P 2575 6125
F 0 "C11" H 2690 6171 50  0000 L CNN
F 1 "10uF" H 2690 6080 50  0000 L CNN
F 2 "Capacitors_SMD:C_0603_HandSoldering" H 2613 5975 50  0001 C CNN
F 3 "~" H 2575 6125 50  0001 C CNN
	1    2575 6125
	1    0    0    -1  
$EndComp
$Comp
L power:GND #PWR054
U 1 1 5B742EF8
P 2575 6375
F 0 "#PWR054" H 2575 6125 50  0001 C CNN
F 1 "GND" H 2575 6225 50  0000 C CNN
F 2 "" H 2575 6375 50  0001 C CNN
F 3 "" H 2575 6375 50  0001 C CNN
	1    2575 6375
	1    0    0    -1  
$EndComp
Wire Wire Line
	2575 5875 2575 5975
Connection ~ 2575 5875
Wire Wire Line
	2575 6275 2575 6375
$Comp
L Device:C C12
U 1 1 5B790F61
P 3525 6125
F 0 "C12" H 3640 6171 50  0000 L CNN
F 1 "10uF" H 3640 6080 50  0000 L CNN
F 2 "Capacitors_SMD:C_0603_HandSoldering" H 3563 5975 50  0001 C CNN
F 3 "~" H 3525 6125 50  0001 C CNN
	1    3525 6125
	1    0    0    -1  
$EndComp
$Comp
L power:GND #PWR055
U 1 1 5B790F67
P 3525 6375
F 0 "#PWR055" H 3525 6125 50  0001 C CNN
F 1 "GND" H 3525 6225 50  0000 C CNN
F 2 "" H 3525 6375 50  0001 C CNN
F 3 "" H 3525 6375 50  0001 C CNN
	1    3525 6375
	1    0    0    -1  
$EndComp
Wire Wire Line
	3525 5875 3525 5975
Wire Wire Line
	3525 6275 3525 6375
Connection ~ 3525 5875
$Comp
L Device:C C1
U 1 1 5B7C0AB9
P 900 1125
F 0 "C1" H 925 1225 50  0000 L CNN
F 1 "100nF" H 925 1025 50  0000 L CNN
F 2 "Capacitors_SMD:C_0603_HandSoldering" H 938 975 50  0001 C CNN
F 3 "~" H 900 1125 50  0001 C CNN
	1    900  1125
	1    0    0    -1  
$EndComp
$Comp
L Device:C C2
U 1 1 5B7C54FF
P 900 2025
F 0 "C2" H 925 2125 50  0000 L CNN
F 1 "100nF" H 925 1950 50  0000 L CNN
F 2 "Capacitors_SMD:C_0603_HandSoldering" H 938 1875 50  0001 C CNN
F 3 "~" H 900 2025 50  0001 C CNN
	1    900  2025
	1    0    0    -1  
$EndComp
$Comp
L Device:C C3
U 1 1 5B7C56BC
P 900 2425
F 0 "C3" H 950 2525 50  0000 L CNN
F 1 "100nF" H 925 2325 50  0000 L CNN
F 2 "Capacitors_SMD:C_0603_HandSoldering" H 938 2275 50  0001 C CNN
F 3 "~" H 900 2425 50  0001 C CNN
	1    900  2425
	1    0    0    -1  
$EndComp
$Comp
L power:GND #PWR010
U 1 1 5B7C57E6
P 675 2250
F 0 "#PWR010" H 675 2000 50  0001 C CNN
F 1 "GND" H 680 2077 50  0000 C CNN
F 2 "" H 675 2250 50  0001 C CNN
F 3 "" H 675 2250 50  0001 C CNN
	1    675  2250
	1    0    0    -1  
$EndComp
$Comp
L power:+15V #PWR036
U 1 1 5B7C6F2C
P 900 1800
F 0 "#PWR036" H 900 1650 50  0001 C CNN
F 1 "+15V" H 900 1940 50  0000 C CNN
F 2 "" H 900 1800 50  0001 C CNN
F 3 "" H 900 1800 50  0001 C CNN
	1    900  1800
	1    0    0    -1  
$EndComp
$Comp
L power:-15V #PWR038
U 1 1 5B7C7045
P 900 2650
F 0 "#PWR038" H 900 2750 50  0001 C CNN
F 1 "-15V" H 900 2800 50  0000 C CNN
F 2 "" H 900 2650 50  0001 C CNN
F 3 "" H 900 2650 50  0001 C CNN
	1    900  2650
	-1   0    0    1   
$EndComp
$Comp
L power:GND #PWR034
U 1 1 5B7EEE09
P 900 1350
F 0 "#PWR034" H 900 1100 50  0001 C CNN
F 1 "GND" H 905 1177 50  0000 C CNN
F 2 "" H 900 1350 50  0001 C CNN
F 3 "" H 900 1350 50  0001 C CNN
	1    900  1350
	1    0    0    -1  
$EndComp
$Comp
L power:+5V #PWR032
U 1 1 5B7F123C
P 900 900
F 0 "#PWR032" H 900 750 50  0001 C CNN
F 1 "+5V" H 900 1040 50  0000 C CNN
F 2 "" H 900 900 50  0001 C CNN
F 3 "" H 900 900 50  0001 C CNN
	1    900  900 
	1    0    0    -1  
$EndComp
Wire Wire Line
	900  1800 900  1875
Wire Wire Line
	900  2175 900  2200
Wire Wire Line
	900  2575 900  2650
Wire Wire Line
	900  2200 675  2200
Wire Wire Line
	675  2200 675  2250
Connection ~ 900  2200
Wire Wire Line
	900  2200 900  2275
Wire Wire Line
	900  1275 900  1350
Wire Wire Line
	900  900  900  975 
$Comp
L Device:C C4
U 1 1 5B911083
P 1400 1125
F 0 "C4" H 1425 1225 50  0000 L CNN
F 1 "100nF" H 1425 1025 50  0000 L CNN
F 2 "Capacitors_SMD:C_0603_HandSoldering" H 1438 975 50  0001 C CNN
F 3 "~" H 1400 1125 50  0001 C CNN
	1    1400 1125
	1    0    0    -1  
$EndComp
$Comp
L Device:C C5
U 1 1 5B911089
P 1400 2025
F 0 "C5" H 1425 2125 50  0000 L CNN
F 1 "100nF" H 1425 1925 50  0000 L CNN
F 2 "Capacitors_SMD:C_0603_HandSoldering" H 1438 1875 50  0001 C CNN
F 3 "~" H 1400 2025 50  0001 C CNN
	1    1400 2025
	1    0    0    -1  
$EndComp
$Comp
L Device:C C6
U 1 1 5B91108F
P 1400 2425
F 0 "C6" H 1450 2525 50  0000 L CNN
F 1 "100nF" H 1425 2325 50  0000 L CNN
F 2 "Capacitors_SMD:C_0603_HandSoldering" H 1438 2275 50  0001 C CNN
F 3 "~" H 1400 2425 50  0001 C CNN
	1    1400 2425
	1    0    0    -1  
$EndComp
$Comp
L power:GND #PWR039
U 1 1 5B911095
P 1175 2250
F 0 "#PWR039" H 1175 2000 50  0001 C CNN
F 1 "GND" H 1180 2077 50  0000 C CNN
F 2 "" H 1175 2250 50  0001 C CNN
F 3 "" H 1175 2250 50  0001 C CNN
	1    1175 2250
	1    0    0    -1  
$EndComp
$Comp
L power:+15V #PWR045
U 1 1 5B91109B
P 1400 1800
F 0 "#PWR045" H 1400 1650 50  0001 C CNN
F 1 "+15V" H 1400 1940 50  0000 C CNN
F 2 "" H 1400 1800 50  0001 C CNN
F 3 "" H 1400 1800 50  0001 C CNN
	1    1400 1800
	1    0    0    -1  
$EndComp
$Comp
L power:-15V #PWR046
U 1 1 5B9110A1
P 1400 2650
F 0 "#PWR046" H 1400 2750 50  0001 C CNN
F 1 "-15V" H 1400 2800 50  0000 C CNN
F 2 "" H 1400 2650 50  0001 C CNN
F 3 "" H 1400 2650 50  0001 C CNN
	1    1400 2650
	-1   0    0    1   
$EndComp
$Comp
L power:GND #PWR042
U 1 1 5B9110A7
P 1400 1350
F 0 "#PWR042" H 1400 1100 50  0001 C CNN
F 1 "GND" H 1405 1177 50  0000 C CNN
F 2 "" H 1400 1350 50  0001 C CNN
F 3 "" H 1400 1350 50  0001 C CNN
	1    1400 1350
	1    0    0    -1  
$EndComp
$Comp
L power:+5V #PWR040
U 1 1 5B9110AD
P 1400 900
F 0 "#PWR040" H 1400 750 50  0001 C CNN
F 1 "+5V" H 1400 1040 50  0000 C CNN
F 2 "" H 1400 900 50  0001 C CNN
F 3 "" H 1400 900 50  0001 C CNN
	1    1400 900 
	1    0    0    -1  
$EndComp
Wire Wire Line
	1400 1800 1400 1875
Wire Wire Line
	1400 2175 1400 2200
Wire Wire Line
	1400 2575 1400 2650
Wire Wire Line
	1400 2200 1175 2200
Wire Wire Line
	1175 2200 1175 2250
Connection ~ 1400 2200
Wire Wire Line
	1400 2200 1400 2275
Wire Wire Line
	1400 1275 1400 1350
Wire Wire Line
	1400 900  1400 975 
$Comp
L Device:C C7
U 1 1 5B93F3E2
P 1875 1125
F 0 "C7" H 1900 1225 50  0000 L CNN
F 1 "100nF" H 1900 1025 50  0000 L CNN
F 2 "Capacitors_SMD:C_0603_HandSoldering" H 1913 975 50  0001 C CNN
F 3 "~" H 1875 1125 50  0001 C CNN
	1    1875 1125
	1    0    0    -1  
$EndComp
$Comp
L Device:C C8
U 1 1 5B93F3E8
P 1875 2025
F 0 "C8" H 1900 2125 50  0000 L CNN
F 1 "100nF" H 1900 1925 50  0000 L CNN
F 2 "Capacitors_SMD:C_0603_HandSoldering" H 1913 1875 50  0001 C CNN
F 3 "~" H 1875 2025 50  0001 C CNN
	1    1875 2025
	1    0    0    -1  
$EndComp
$Comp
L Device:C C9
U 1 1 5B93F3EE
P 1875 2425
F 0 "C9" H 1925 2525 50  0000 L CNN
F 1 "100nF" H 1900 2325 50  0000 L CNN
F 2 "Capacitors_SMD:C_0603_HandSoldering" H 1913 2275 50  0001 C CNN
F 3 "~" H 1875 2425 50  0001 C CNN
	1    1875 2425
	1    0    0    -1  
$EndComp
$Comp
L power:GND #PWR047
U 1 1 5B93F3F4
P 1650 2250
F 0 "#PWR047" H 1650 2000 50  0001 C CNN
F 1 "GND" H 1655 2077 50  0000 C CNN
F 2 "" H 1650 2250 50  0001 C CNN
F 3 "" H 1650 2250 50  0001 C CNN
	1    1650 2250
	1    0    0    -1  
$EndComp
$Comp
L power:+15V #PWR050
U 1 1 5B93F3FA
P 1875 1800
F 0 "#PWR050" H 1875 1650 50  0001 C CNN
F 1 "+15V" H 1875 1940 50  0000 C CNN
F 2 "" H 1875 1800 50  0001 C CNN
F 3 "" H 1875 1800 50  0001 C CNN
	1    1875 1800
	1    0    0    -1  
$EndComp
$Comp
L power:-15V #PWR051
U 1 1 5B93F400
P 1875 2650
F 0 "#PWR051" H 1875 2750 50  0001 C CNN
F 1 "-15V" H 1875 2800 50  0000 C CNN
F 2 "" H 1875 2650 50  0001 C CNN
F 3 "" H 1875 2650 50  0001 C CNN
	1    1875 2650
	-1   0    0    1   
$EndComp
$Comp
L power:GND #PWR049
U 1 1 5B93F406
P 1875 1350
F 0 "#PWR049" H 1875 1100 50  0001 C CNN
F 1 "GND" H 1880 1177 50  0000 C CNN
F 2 "" H 1875 1350 50  0001 C CNN
F 3 "" H 1875 1350 50  0001 C CNN
	1    1875 1350
	1    0    0    -1  
$EndComp
$Comp
L power:+5V #PWR048
U 1 1 5B93F40C
P 1875 900
F 0 "#PWR048" H 1875 750 50  0001 C CNN
F 1 "+5V" H 1875 1040 50  0000 C CNN
F 2 "" H 1875 900 50  0001 C CNN
F 3 "" H 1875 900 50  0001 C CNN
	1    1875 900 
	1    0    0    -1  
$EndComp
Wire Wire Line
	1875 1800 1875 1875
Wire Wire Line
	1875 2175 1875 2200
Wire Wire Line
	1875 2575 1875 2650
Wire Wire Line
	1875 2200 1650 2200
Connection ~ 1875 2200
Wire Wire Line
	1875 2200 1875 2275
Wire Wire Line
	1875 1275 1875 1350
Wire Wire Line
	1875 900  1875 975 
Wire Wire Line
	1650 2200 1650 2250
$Comp
L Device:C C10
U 1 1 5B9A5A6C
P 2550 1125
F 0 "C10" H 2575 1225 50  0000 L CNN
F 1 "100nF" H 2575 1025 50  0000 L CNN
F 2 "Capacitors_SMD:C_0603_HandSoldering" H 2588 975 50  0001 C CNN
F 3 "~" H 2550 1125 50  0001 C CNN
	1    2550 1125
	1    0    0    -1  
$EndComp
$Comp
L power:GND #PWR053
U 1 1 5B9A5A72
P 2550 1350
F 0 "#PWR053" H 2550 1100 50  0001 C CNN
F 1 "GND" H 2555 1177 50  0000 C CNN
F 2 "" H 2550 1350 50  0001 C CNN
F 3 "" H 2550 1350 50  0001 C CNN
	1    2550 1350
	1    0    0    -1  
$EndComp
$Comp
L power:+5V #PWR052
U 1 1 5B9A5A78
P 2550 900
F 0 "#PWR052" H 2550 750 50  0001 C CNN
F 1 "+5V" H 2550 1040 50  0000 C CNN
F 2 "" H 2550 900 50  0001 C CNN
F 3 "" H 2550 900 50  0001 C CNN
	1    2550 900 
	1    0    0    -1  
$EndComp
Wire Wire Line
	2550 1275 2550 1350
Wire Wire Line
	2550 900  2550 975 
$EndSCHEMATC
